…
``` r
head(cpr_list)
```

    #> $cpr3.3
    #> # A tibble: 195,048 x 9
    #>    datetime             year month   ghi   dni   dhi  temp    ws model 
    #>    <dttm>              <dbl> <dbl> <dbl> <dbl> <dbl> <dbl> <dbl> <chr> 
    #>  1 1998-01-01 01:00:00  1998     1     0     0     0     0     7 cpr3.3
    #>  2 1998-01-01 02:00:00  1998     1     0     0     0     0     7 cpr3.3
    #>  3 1998-01-01 03:00:00  1998     1     0     0     0     0     7 cpr3.3
    #>  4 1998-01-01 04:00:00  1998     1     0     0     0     0     7 cpr3.3
    #>  5 1998-01-01 05:00:00  1998     1     0     0     0     0     7 cpr3.3
    #>  6 1998-01-01 06:00:00  1998     1     0     0     0    -1     7 cpr3.3
    #>  7 1998-01-01 07:00:00  1998     1     0     0     0    -1     7 cpr3.3
    #>  8 1998-01-01 08:00:00  1998     1     5    14     5     0     8 cpr3.3
    #>  9 1998-01-01 09:00:00  1998     1   117   336    66     1     8 cpr3.3
    #> 10 1998-01-01 10:00:00  1998     1   148   160   100     2     9 cpr3.3
    #> # ... with 195,038 more rows
    #> 
    #> $cpr3.4
    #> # A tibble: 194,280 x 9
    #>    datetime             year month   ghi   dni   dhi  temp    ws model 
    #>    <dttm>              <dbl> <dbl> <dbl> <dbl> <dbl> <dbl> <dbl> <chr> 
    #>  1 1998-01-01 01:00:00  1998     1     0     0     0     3     6 cpr3.4
    #>  2 1998-01-01 02:00:00  1998     1     0     0     0     3     6 cpr3.4
    #>  3 1998-01-01 03:00:00  1998     1     0     0     0     2     6 cpr3.4
    #>  4 1998-01-01 04:00:00  1998     1     0     0     0     2     6 cpr3.4
    #>  5 1998-01-01 05:00:00  1998     1     0     0     0     2     7 cpr3.4
    #>  6 1998-01-01 06:00:00  1998     1     0     0     0     2     7 cpr3.4
    #>  7 1998-01-01 07:00:00  1998     1     0     0     0     2     6 cpr3.4
    #>  8 1998-01-01 08:00:00  1998     1     5    16     5     2     6 cpr3.4
    #>  9 1998-01-01 09:00:00  1998     1   115   290    71     3     6 cpr3.4
    #> 10 1998-01-01 10:00:00  1998     1   154   159   106     6     7 cpr3.4
    #> # ... with 194,270 more rows

``` r
head(vaisala_list)
```

    #> $vaisala2.1.3
    #> # A tibble: 203,039 x 9
    #>    datetime             year month   ghi   dni   dhi  temp    ws model       
    #>    <dttm>              <dbl> <dbl> <dbl> <dbl> <dbl> <dbl> <dbl> <chr>       
    #>  1 1996-12-31 19:00:00  1996    12     0     0     0  7.22  1.42 vaisala2.1.3
    #>  2 1996-12-31 20:00:00  1996    12     0     0     0  6.73  1.55 vaisala2.1.3
    #>  3 1996-12-31 21:00:00  1996    12     0     0     0  6.49  1.75 vaisala2.1.3
    #>  4 1996-12-31 22:00:00  1996    12     0     0     0  6.46  1.98 vaisala2.1.3
    #>  5 1996-12-31 23:00:00  1996    12     0     0     0  6.04  2.33 vaisala2.1.3
    #>  6 1997-01-01 00:00:00  1997     1     0     0     0  5.21  2.81 vaisala2.1.3
    #>  7 1997-01-01 01:00:00  1997     1     0     0     0  4.64  3.15 vaisala2.1.3
    #>  8 1997-01-01 02:00:00  1997     1     0     0     0  4.58  3.37 vaisala2.1.3
    #>  9 1997-01-01 03:00:00  1997     1     0     0     0  4.77  3.45 vaisala2.1.3
    #> 10 1997-01-01 04:00:00  1997     1     0     0     0  4.84  3.41 vaisala2.1.3
    #> # ... with 203,029 more rows
…
``` r
## Create the MCP object by giving it the megaframe parameter
my_mcp <- MCP(megaframe)

## Run the mcp
my_mcp$run()

## Get the results of the mcp
my_mcp$get_results()
```

    #> # A tibble: 21 x 12
    #>    model longterm_resour~ sensor longterm_adjust~ timestep   por     iav sms_por
    #>    <chr>            <dbl> <chr>             <dbl> <chr>    <dbl>   <dbl>   <dbl>
    #>  1 cpr3~           1578.  ghi              1644.  daily    22.3   0.0341    1.10
    #>  2 cpr3~           1578.  ghi              1642.  hourly   22.3   0.0341    1.10
    #>  3 cpr3~           1578.  ghi              1607.  daily    22.2   0.0308    1.10
    #>  4 cpr3~           1578.  ghi              1606.  hourly   22.2   0.0308    1.10
    #>  5 sms             1532.  ghi                NA   <NA>      1.10 NA         1.10
    #>  6 vais~           1559.  ghi              1597.  daily    23.2   0.0329    1.10
    #>  7 vais~           1559.  ghi              1592.  hourly   23.2   0.0329    1.10
    #>  8 cpr3~             14.4 temp               14.4 daily    22.3   0.0539    1.10
    #>  9 cpr3~             14.4 temp               14.4 hourly   22.3   0.0539    1.10
    #> 10 cpr3~             14.8 temp               14.0 daily    22.2   0.0514    1.10
    #> # ... with 11 more rows, and 4 more variables: adj.r.squared <dbl>,
    #> #   r.squared <dbl>, sigma <dbl>, rom <dbl>
…
